{
  "count": 3,
  "next": "https://paperswithcode.com/api/latest?page=2",
  "previous": null,
  "results": [
    {
      "id": "awesome-model",
      "title": "Awesome Model for Vision",
      "url_abs": "https://paperswithcode.com/paper/awesome-model",
      "published_at": "2025-09-19T00:00:00Z",
      "summary": "We release a new model that improves vision tasks.",
      "author_names": ["Alice Example", "Bob Example"],
      "repository_url": "https://github.com/example/awesome-model"
    },
    {
      "id": "efficient-agent",
      "title": "Efficient Agent Planning",
      "url_abs": "https://paperswithcode.com/paper/efficient-agent",
      "published_at": "2025-09-18T00:00:00Z",
      "description": "Planning algorithms for efficient agents.",
      "authors": "Carol Smith, Dave Johnson"
    }
  ]
}
